##This is the Solar Data File.
##It contains all solar information needed to calculate the solar modulation amplitude
##The columns are as follows:
##Bartles Rotation, Magnetic Field Strength (nT), Magnetic Field Strength Uncertainty (not currently used, nT), Tilt Angle (degrees), Rigidity Dependence Normalization for Positive CRs, Rigidity Dependence Normalization for Negative CRs
##Bfield Data from: http://www.srl.caltech.edu/cgi-bin/dib/rundibviewmagl2/ACE/ASC/DATA/level2/mag
##Tilt Angle data taken from: http://wso.stanford.edu/Tilts.html
######Note: For Tilt Angle: L_avg uses the "classic" model of a line-of-sight boundary condition at the photoshpere
######Note: For Tilt Angle: Bartel Cycle numbers are taken from Supplimental Materials and matched up as closely as posssible (WSO uses Carrington Rotations)
2327 7.608 2.364 59.3 1.0 0.0
2328 7.616 3.406 61.9 1.0 0.0
2329 6.449 2.581 54.2 1.0 0.0
2330 6.588 3.213 50.3 1.0 0.0
2331 6.261 1.919 53.4 1.0 0.0
2332 6.001 1.803 51.7 1.0 0.0
2333 5.734 2.244 48.5 1.0 0.0
2334 6.820 4.398 48.7 1.0 0.0
2335 6.330 3.376 47.4 1.0 0.0
2336 6.055 2.994 40.0 1.0 0.0
2337 5.714 1.981 40.9 1.0 0.0
2338 6.883 7.004 37.6 1.0 0.0
2339 6.569 3.676 48.5 1.0 0.0
2340 7.351 2.552 52.2 1.0 0.0
2341 7.8605	5.0622 46.5 1.0 0.0
2342 6.5551	2.9501 45.8 1.0 0.0
2343 6.1636	2.6795 46.3 1.0 0.0
2344 5.3080	2.4903 44.3 1.0 0.0
2345 7.0592	6.5293 42.2 1.0 0.0
2346 6.7417	4.1579 38.9 1.0 0.0
2347 6.6261	4.0027 38.4 1.0 0.0
2348 6.2070	2.6008 38.6 1.0 0.0
2349 6.6560	4.7493 34.5 1.0 0.0
2350 5.7054	2.5260 42.1 1.0 0.0
2351 5.1169	2.2035 41.6 1.0 0.0
2352 5.4542	2.1364 40.8 1.0 0.0
2353 5.9006	2.7552 43.8 1.0 0.0
2354 5.6982	2.4109 37.8 1.0 0.0
2355 5.2865	2.3511 28.9 1.0 0.0
2356 4.9865	1.9601 37.4 1.0 0.0
2357 4.8723	2.1556 34.2 1.0 0.0
2358 5.4292	3.3245 40.8 1.0 0.0
2359 4.8309	2.2551 35.9 1.0 0.0
2360 4.6248	2.2579 34.7 1.0 0.0
2361 4.7359	2.7920 34.0 1.0 0.0
2362 5.2211	3.1798 36.3 1.0 0.0
2363 4.9991	2.4429 35.8 1.0 0.0
2364 4.7675	3.0621 27.6 1.0 0.0
2365 4.5841	2.6243 28.3 1.0 0.0
2366 5.8667	2.8083 30.7 1.0 0.0
2367 5.1648	2.6073 33.2 1.0 0.0
2368 5.0665	2.6049 32.7 1.0 0.0
2369 4.5528	1.8297 32.2 1.0 0.0
2370 4.7958	2.4206 29.4 1.0 0.0
2371 4.3817	2.2056 33.4 1.0 0.0
2372 4.108 2.389 31.7 1.0 0.0
2373 5.192 2.821 33.5 1.0 0.0
2374 4.4606	1.9834 32.0 1.0 0.0
2375 4.2655	2.7862 30.3 1.0 0.0
2376 4.4277	2.1428 31.4 1.0 0.0
2377 4.2413	2.0665 29.8 1.0 0.0
2378 4.1397	2.1511 29.1 1.0 0.0
2379 4.6450	2.7369 30.4 1.0 0.0
2380 4.1142	2.1001 30.7 1.0 0.0
2381 4.3706	1.9571 32.7 1.0 0.0
2382 4.5636	1.9537 35.5 1.0 0.0
2383 4.5111	2.0027 35.1 1.0 0.0
2384 4.3994	1.6232 35.7 1.0 0.0
2385 4.3392	1.6441 35.6 1.0 0.0
2386 4.1721	1.6220 34.6 1.0 0.0
2387 4.1145	2.0071 34.2 1.0 0.0
2388 4.1180	1.8388 30.0 1.0 0.0
2389 4.2668	2.0439 30.0 1.0 0.0
2390 3.8204	2.0413 31.9 1.0 0.0
2391 4.4962	1.6851 26.1 1.0 0.0
2392 4.2297	1.7880 24.4 1.0 0.0
2393 3.7931	2.3016 27.6 1.0 0.0
2394 4.2187	2.0097 22.1 1.0 0.0
2395 4.3891	1.7801 21.7 1.0 0.0
2396 3.8873	2.1154 24.1 1.0 0.0
2397 4.2181	2.6274 23.1 1.0 0.0
2398 3.8017	1.6486 20.2 1.0 0.0
2399 3.5255	1.3210 16.4 1.0 0.0
2400 3.5815	1.3892 21.2 1.0 0.0
2401 4.1426	1.6683 21.3 1.0 0.0
2402 4.0202	2.1966 20.5 1.0 0.0
2403 4.1169	2.1043 12.8 1.0 0.0
2404 3.7456	1.5224 12.0 1.0 0.0
2405 4.0621	1.9971 10.1 1.0 0.0
2406 4.1167	2.0280 23.1 1.0 0.0
2407 3.8800	1.7842 33.5 1.0 0.0
2408 4.0431	1.6795 47.0 1.0 0.0
2409 4.8198	1.7503 43.8 1.0 0.0
2410 5.5061	1.7461 42.1 1.0 0.0
2411 4.9364	1.5533 41.5 1.0 0.0
2412 4.9291	2.2556 36.3 1.0 0.0
2413 4.7431	2.3409 37.2 1.0 0.0
2414 4.7971	2.4306 27.9 1.0 0.0
2415 4.2604	1.9345 45.6 1.0 0.0
2416 4.7986	2.1020 41.2 1.0 0.0
2417 4.1560	2.1563 49.6 1.0 0.0
2418 4.5943	2.0108 43.5 1.0 0.0
2419 4.9064	2.2103 40.4 1.0 0.0
2420 4.8334	2.1420 48.8 1.0 0.0
2421 4.4961	1.8954 48.2 1.0 0.0
2422 4.4644	1.5249 53.6 1.0 0.0
2423 5.2695	3.5861 56.1 1.0 0.0
2424 5.3725	2.1850 65.2 1.0 0.0
2425 5.7431	2.9820 69.9 1.0 0.0
2426 4.8639	2.1263 63.7 1.0 0.0
2427 5.8915	2.8152 63.5 1.0 0.0
2428 5.4376	1.7553 64.5 1.0 0.0
2429 5.1051	2.1905 67.1 1.0 0.0
2430 4.9622	2.9255 66.7 1.0 0.0
2431 5.6718	3.7647 71.1 1.0 0.0
2432 5.3519	2.0117 69.6 1.0 0.0
2433 5.7657	3.3310 66.9 1.0 0.0
2434 4.9047	2.3816 68.8 1.0 0.0
2435 5.2077	2.2219 67.1 1.0 0.0
2436 5.7854	3.3530 70.0 1.0 0.0
2437 5.9703	2.2448 60.4 1.0 0.0
2438 6.1106	3.6104 58.0 1.0 0.0
2439 5.6763	2.8707 68.0 1.0 0.0
2440 5.5685	2.5536 74.3 1.0 0.0
2441 6.5363	4.6757 74.6 1.0 0.0
2442 6.8249	4.0970 73.9 1.0 0.0
2443 5.5653	2.0841 73.1 1.0 0.0
2444 5.6489	2.6076 71.6 1.0 0.0
2445 5.6081	3.2464 73.4 1.0 0.0
2446 5.2112	2.9210 71.5 0.94444444444 0.05555555555
2447 5.6063	4.0041 61.9 0.88888888888 0.11111111111
2448 4.8350	2.3537 73.1 0.83333333333 0.16666666666
2449 4.7851	2.3903 71.5 0.77777777777 0.22222222222
2450 5.1612	2.3810 64.8 0.72222222222 0.27777777777
2451 5.2377	2.6877 73.6 0.66666666666 0.33333333333
2452 5.2736	2.2224 70.1 0.61111111111 0.38888888888
2453 5.0684	2.6851 68.9 0.55555555555 0.44444444444
2454 5.9483	3.0784 71.7 0.5 0.5
2455 5.5487	2.5407 73.0 0.44444444444 0.55555555555
2456 6.1606	3.0972 68.3 0.38888888888 0.61111111111
2457 5.0460	2.3177 68.3 0.33333333333 0.66666666666
2458 4.6555	1.6615 70.4 0.27777777777 0.72222222222
2459 4.5359	3.1774 67.2 0.22222222222 0.77777777777
2460 5.3830	2.1590 66.9 0.16666666666 0.83333333333
2461 5.0862	2.8164 66.5 0.11111111111 0.88888888888
2462 4.9304	2.2287 64.4 0.05555555555 0.94444444444
2463 5.3716	2.1571 68.7 0.0 1.0
2464 6.4619	3.0370 60.5 0.0 1.0
2465 4.7835	1.8173 62.7 0.0 1.0
2466 5.7881	2.7900 56.7 0.0 1.0
2467 5.5235	2.3320 48.8 0.0 1.0
2468 5.6965	2.6300 48.1 0.0 1.0
2469 4.9997	2.2090 58.8 0.0 1.0
2470 5.1996	1.8950 60.0 0.0 1.0
2471 6.5169	3.5931 69.1 0.0 1.0
2472 6.999 4.233 72.5 0.0 1.0
2473 6.696 2.159 52.5 0.0 1.0
2474 7.5810	2.3459 53.8 0.0 1.0
2475 7.8655	3.8769 55.2 0.0 1.0
2476 7.5518	3.0121 50.6 0.0 1.0
2477 6.8182	2.4762 49.2 0.0 1.0
2478 7.1708	3.7446 44.6 0.0 1.0
2479 7.0868	3.6270 43.3 0.0 1.0
2480 6.4022	2.9313 51.4 0.0 1.0
2481 6.0334	2.7566 52.7 0.0 1.0
2482 6.2850	4.2565 47.4 0.0 1.0
2483 6.0312	2.7391 49.8 0.0 1.0
2484 6.7678	2.7151 48.7 0.0 1.0
2485 7.2826	3.2219 50.4 0.0 1.0
2486 5.9896	2.7091 51.4 0.0 1.0
2487 6.7573	3.2462 50.6 0.0 1.0
2488 6.1115	2.2938 50.3 0.0 1.0
2489 7.0750	3.4994 51.2 0.0 1.0
2490 6.8774	2.9693 47.5 0.0 1.0
2491 6.6510	2.9025 47.9 0.0 1.0
2492 6.3836	3.1474 43.5 0.0 1.0
2493 6.6103	2.2855 42.6 0.0 1.0
2494 6.1664	2.3811 42.5 0.0 1.0
2495 5.7832	2.3009 39.4 0.0 1.0
2496 5.4742	2.1525 40.5 0.0 1.0
2497 6.2785	3.8973 39.1 0.0 1.0
2498 5.8213	1.9769 41.8 0.0 1.0
2499 6.1341	2.2494 43.4 0.0 1.0
2500 6.2156	3.7509 41.7 0.0 1.0
2501 5.6234	2.4755 39.2 0.0 1.0
2502 5.3219	2.1780 40.6 0.0 1.0
2503 4.9130	2.4839 35.3 0.0 1.0
2504 4.9430	2.3002 31.0 0.0 1.0
2505 5.0935	2.0252 28.9 0.0 1.0
2506 5.3355	2.8397 31.4 0.0 1.0
2507 5.3363	2.0734 31.2 0.0 1.0
2508 5.9708	3.4635 32.0 0.0 1.0
2509 5.3700	2.5367 27.3 0.0 1.0
2510 5.3606	3.2407 20.4 0.0 1.0
2511 5.4108	2.5389 28.5 0.0 1.0
2512 5.5404	3.0443 30.6 0.0 1.0
2513 5.0486	2.2331 29.2 0.0 1.0
2514 5.1093	2.4547 29.1 0.0 1.0
2515 5.0596	2.5022 25.6 0.0 1.0
2516 4.8735	2.0364 26.7 0.0 1.0
2517 4.7924	2.2335 24.1 0.0 1.0
2518 4.8900	1.9720 20.0 0.0 1.0
2519 5.0478	2.7515 18.7 0.0 1.0
2520 4.4630	2.1810 16.5 0.0 1.0
2521 4.8457	1.7700 17.7 0.0 1.0
2522 4.3486	2.5426 25.3 0.0 1.0
2523 4.7213	2.2694 23.1 0.0 1.0
2524 4.8575	2.0006 23.8 0.0 1.0
2525 4.8098	3.0059 26.3 0.0 1.0
2526 4.6576	2.1409 25.4 0.0 1.0
2527 4.2326	1.8700 21.1 0.0 1.0
2528 4.7269	1.7993 22.5 0.0 1.0
2529 4.7493	1.6595 21.2 0.0 1.0
2530 4.776 1.802 16.1 0.0 1.0
2531 4.838 2.016 19.3 0.0 1.0
2532 4.775 1.671 20.7 0.0 1.0
2533 4.742 1.761 25.1 0.0 1.0
2534 4.400 1.482 20.9 0.0 1.0
2535 5.294 2.492 19.8 0.0 1.0
2536 4.397 1.741 18.6 0.0 1.0
2537 4.422 1.683 17.5 0.0 1.0
2538 4.058 2.101 16.8 0.0 1.0
2539 4.445 1.619 15.3 0.0 1.0
2540 4.542 2.007 14.6 0.0 1.0
2541 4.516 2.576 13.6 0.0 1.0
2542 4.170 1.565 10.8 0.0 1.0
2543 4.563 1.749 9.1 0.0 1.0
2544 4.134 1.470 7.5 0.0 1.0
2545 4.395 1.710 7.5 0.0 1.0
