##This is an example ISM spectral file with some data.
##The columns are Ekin/nucleon (GeV) and Differential Flux at the Central Point of the Bin (dN/dE, 1/GeV)
##In these files, lines that start with # are ignored.
0.001 2768.1822
0.0011 3127.125
0.00121 3272.8839
0.001331 3401.1309
0.0014641 3531.7494
0.00161051 3666.9249
0.00177156 3806.9643
0.00194872 3951.9885
0.00214359 4102.0347
0.00235795 4257.1587
0.00259374 4417.3884
0.00285312 4582.7238
0.00313843 4753.1463
0.00345227 4928.6187
0.0037975 5109.0759
0.00417725 5294.4063
0.00459497 5484.4518
0.00505447 5679.045
0.00555992 5877.9162
0.00611591 6080.7864
0.0067275 6287.2557
0.00740025 6496.887
0.00814027 6709.1409
0.0089543 6923.3757
0.00984973 7138.8474
0.0108347 7354.6818
0.0119182 7569.8931
0.01311 7783.356
0.014421 7993.7964
0.0158631 8199.8193
0.0174494 8399.8902
0.0191943 8592.3909
0.0211138 8775.5823
0.0232252 8947.6602
0.0255477 9106.8483
0.0281024 9251.4261
0.0309127 9379.701
0.0340039 9489.813
0.0374043 9580.302
0.0411448 9649.773
0.0452593 9697.203
0.0497852 9721.755
0.0547637 9722.592
0.0602401 9698.784
0.0662641 9650.052
0.0728905 9576.117
0.0801795 9477.351
0.0881975 9354.126
0.0970172 9207.3813
0.106719 9038.1585
0.117391 8847.6573
0.12913 8637.1704
0.142043 8408.0649
0.156247 8161.7358
0.171872 7899.7548
0.189059 7623.6843
0.207965 7334.9379
0.228762 7034.8734
0.251638 6724.7835
0.276801 6405.7842
0.304482 6078.8241
0.33493 5746.4793
0.368423 5409.9216
0.405265 5070.453
0.445792 4729.4127
0.490371 4388.1492
0.539408 4048.2528
0.593349 3711.9741
0.652683 3382.6518
0.717952 3064.6383
0.789747 2761.9605
0.868722 2476.7202
0.955594 2209.2615
1.05115 1959.5007
1.15627 1727.5308
1.2719 1513.5006
1.39908 1317.4938
1.53899 1139.4267
1.69289 979.0203
1.86218 835.77054
2.0484 708.97806
2.25324 597.75843
2.47856 501.05238
2.72642 417.69648
2.99906 346.45662
3.29897 286.06428
3.62887 235.24908
3.99175 192.77691
4.39093 157.47225
4.83002 128.2284
5.31302 103.96842
5.84432 83.847126
6.42876 67.367154
7.07163 53.970039
7.7788 43.139166
8.55668 34.420323
9.41234 27.420585
10.3536 21.804222
11.3889 17.280981
12.5278 13.56684
13.7806 10.582284
15.1587 8.2170615
16.6745 6.3593586
18.342 4.9097862
20.1762 3.78417
22.1938 2.9131692
24.4132 2.2409466
26.8545 1.7230482
29.54 1.3244874
32.494 1.0179873
35.7434 0.78236529
39.3177 0.60126453
43.2495 0.46208073
47.5744 0.35511213
52.3319 0.27290292
57.565 0.20972058
63.3215 0.16116249
69.6537 0.12384252
76.6191 0.09516132
84.281 0.073120134
92.7091 0.056181393
101.98 0.043164276
112.178 0.033160545
123.396 0.025473909
135.735 0.019568223
149.309 0.015031032
164.24 0.011545485
180.664 0.0088678941
198.73 0.006811041
218.603 0.0052310826
240.463 0.0040174884
264.51 0.0030853401
290.961 0.0023693889
320.057 0.0018195171
352.063 0.0013972134
387.269 0.0010728852
425.996 0.00082382748
468.595 0.00063256647
515.455 0.00048569901
567.0 0.00037292628
623.7 0.00028633212
686.07 0.00021983991
754.677 0.0001687857
830.145 0.00012958527
913.16 9.948675e-05
1004.48 7.6378761e-05
1104.92 5.8637709e-05
1215.42 4.5016743e-05
1336.96 3.4559265e-05
1470.65 2.6530575e-05
1617.72 2.0366721e-05
1779.49 1.5634602e-05
1957.44 1.2001836e-05
2153.18 9.2129613e-06
2368.5 7.0720548e-06
2605.35 5.4285774e-06
2865.89 4.1669673e-06
3152.47 3.1985211e-06
3467.72 2.4551163e-06
3814.49 1.8844776e-06
4195.94 1.4464476e-06
4615.54 1.1102247e-06
5077.09 8.5215063e-07
5584.8 6.5406063e-07
6143.28 5.0201307e-07
6757.61 3.8530737e-07
7433.37 2.9572977e-07
8176.71 2.2697487e-07
8994.38 1.7420295e-07
9893.82 1.3369866e-07
10883.2 1.0261062e-07
11971.5 7.8751098e-08
13168.7 6.0438747e-08
14485.5 4.6384308e-08
15934.1 3.5597796e-08
17527.5 2.7319401e-08
19280.2 2.0966013e-08
21208.3 1.6090023e-08
23329.1 1.2347982e-08
25662.0 9.476142e-09
28228.2 7.2722187e-09
31051.0 5.5808556e-09
34156.1 4.282836e-09
37571.7 3.2866944e-09
41328.9 2.5222251e-09
45461.8 1.9355625e-09
50008.0 1.4853402e-09
55008.8 1.1398266e-09
60509.7 8.7468453e-10
66560.6 6.7121262e-10
73216.7 5.150433e-10
80538.4 3.916695e-10
88592.2 0.0
97451.4 0.0
107197.0 0.0
117916.0 0.0
129708.0 0.0
142679.0 0.0
156947.0 0.0
172641.0 0.0
189905.0 0.0
208896.0 0.0
229785.0 0.0
252764.0 0.0
278040.0 0.0
305844.0 0.0
336429.0 0.0
370072.0 0.0
407079.0 0.0
447787.0 0.0
492565.0 0.0
541822.0 0.0
596004.0 0.0
655605.0 0.0
721165.0 0.0
793281.0 0.0
872610.0 0.0
959871.0 0.0
1055860.0 0.0
1161440.0 0.0
1277590.0 0.0
1405350.0 0.0
1545880.0 0.0
1700470.0 0.0
1870520.0 0.0
2057570.0 0.0
2263320.0 0.0
2489660.0 0.0
2738620.0 0.0
3012490.0 0.0
3313730.0 0.0
3645110.0 0.0
4009620.0 0.0
4410580.0 0.0
4851640.0 0.0
5336800.0 0.0
5870480.0 0.0
6457530.0 0.0
7103280.0 0.0
7813610.0 0.0
8594970.0 0.0
9454470.0 0.0
10399900.0 0.0
11439900.0 0.0
12583900.0 0.0
13842300.0 0.0
15226500.0 0.0
16749200.0 0.0
18424100.0 0.0
20266500.0 0.0
22293100.0 0.0
24522500.0 0.0
26974700.0 0.0
29672200.0 0.0
32639400.0 0.0
35903300.0 0.0
39493700.0 0.0
43443000.0 0.0
47787300.0 0.0
52566100.0 0.0
57822700.0 0.0
63604900.0 0.0
69965400.0 0.0
76962000.0 0.0
84658200.0 0.0
93124000.0 0.0
102436000.0 0.0
112680000.0 0.0
123948000.0 0.0
136343000.0 0.0
149977000.0 0.0
164975000.0 0.0
181472000.0 0.0
199620000.0 0.0
219581000.0 0.0
241540000.0 0.0
265694000.0 0.0
292263000.0 0.0
321489000.0 0.0
353638000.0 0.0
389002000.0 0.0
427902000.0 0.0
470692000.0 0.0
517762000.0 0.0
569538000.0 0.0
